<svg width="40" height="40" viewBox="0 0 40 40" fill="none" xmlns="http://www.w3.org/2000/svg">
    <g id="check point">
            <g id="check">
                <line id="Line 3" x1="9.06066" y1="20.5659" x2="16.0607" y2="27.5659" stroke="black" stroke-width="3.5"/>
                <line id="Line 4" x1="14.2953" y1="27.5659" x2="30.9218" y2="10.9393" stroke="black" stroke-width="3.5"/>
            </g>
    </g>
</svg>
